{
  "name": "Device Details - SITEC Devices",
  "description": "Plugin adds a Contact tab to Device Details view",
  "category": "DeviceTabs",
  "icon": "bell",
  "color": "#F2DF0F",
  "ngModules": [
    "sitecView"
  ],
  "js": [
    "index.js",
    "controllers/sitecView.js",
    "services/operationsService.js",
    "services/inventoryService.js"
  ]
}